{
    "page": 6,
    "total_results": 406095,
    "total_pages": 20305,
    "results": [
        {
            "vote_count": 9400,
            "id": 76338,
            "video": false,
            "vote_average": 6.7,
            "title": "Thor: O Mundo Sombrio",
            "popularity": 35.117,
            "poster_path": "/9ySzOgYbKEHFDjMgsKPMuzN9M2z.jpg",
            "original_language": "en",
            "original_title": "Thor: The Dark World",
            "genre_ids": [
                28,
                12,
                14
            ],
            "backdrop_path": "/3FweBee0xZoY77uO1bhUOlQorNH.jpg",
            "adult": false,
            "overview": "Enquanto Thor (Chris Hemsworth) liderava as últimas batalhas para conquistar a paz entre os Nove Reinos, o maldito elfo negro Malekith (Christopher Eccleston) acordava de um longo sono, sedento de vingança e louco para levar todos para a escuridão eterna. Alertado do perigo por Odin (Anthony Hopkins), o herói precisa contar com a ajuda dos companheiros Volstagg (Ray Stevenson), Sif (Jaimie Alexander), entre outros, e até de seu irmão, o traiçoeiro Loki (Tom Hiddleston), em um plano audacioso para salvar o universo do grande mal. Mas os caminhos de Thor e da amada Jane Foster (Natalie Portman) se cruzam novamente e, dessa vez, a vida dela está realmente em perigo.",
            "release_date": "2013-10-29"
        },
        {
            "vote_count": 43,
            "id": 471507,
            "video": false,
            "vote_average": 6.5,
            "title": "O Peso do Passado",
            "popularity": 35.111,
            "poster_path": "/vSbVUMUY9MQcLBiLoADD7FuYHHo.jpg",
            "original_language": "en",
            "original_title": "Destroyer",
            "genre_ids": [
                53,
                80,
                18,
                28
            ],
            "backdrop_path": "/rURV5xPzt9ZxEXAc4OQmxchGyZ8.jpg",
            "adult": false,
            "overview": "Erin Bell é uma detetive da Polícia de Los Angeles que, quando jovem, foi colocada à paisana com uma gangue no deserto da Califórnia, com resultados trágicos. Quando o líder dessa gangue reaparecer muitos anos depois, ela deve trabalhar o caminho de volta através dos membros remanescentes e em sua própria história com eles para finalmente contar com os demônios que destruíram seu passado.",
            "release_date": "2018-12-25"
        },
        {
            "vote_count": 860,
            "id": 360920,
            "video": false,
            "vote_average": 6.4,
            "title": "O Grinch",
            "popularity": 35.088,
            "poster_path": "/fDKfziciaKrdTzBZEnXH9tx6u2G.jpg",
            "original_language": "en",
            "original_title": "The Grinch",
            "genre_ids": [
                16,
                10751,
                35,
                14
            ],
            "backdrop_path": "/juc9wt7Eh2IarLL5S1yQ1a21O1A.jpg",
            "adult": false,
            "overview": "O Grinch é um ser verde que não suporta o Natal e, todo ano, precisa impedir que os habitantes da cidade vizinha de Quemlândia comemorem a data. Decidido a acabar com a festa, ele resolve invadir os lares dos vizinhos e roubar tudo o que está relacionado ao Natal.",
            "release_date": "2018-11-08"
        },
        {
            "vote_count": 9877,
            "id": 210577,
            "video": false,
            "vote_average": 7.9,
            "title": "Garota Exemplar",
            "popularity": 34.961,
            "poster_path": "/eGawKDb023V1V4Emdyovqfkz4qg.jpg",
            "original_language": "en",
            "original_title": "Gone Girl",
            "genre_ids": [
                9648,
                53,
                18
            ],
            "backdrop_path": "/8ZNGBfGoN3uI5Akj5vEUDMxvmGO.jpg",
            "adult": false,
            "overview": "Amy Dunne (Rosamund Pike) desaparece no dia do seu aniversário de casamento, deixando o marido Nick (Ben Affleck) em apuros. Ele começa a agir descontroladamente, abusando das mentiras, e se torna o suspeito número um da polícia. Com o apoio da sua irmã gêmea, Margo (Carrie Coon), Nick tenta provar a sua inocência e, ao mesmo tempo, procura descobrir o que aconteceu com Amy.",
            "release_date": "2014-10-01"
        },
        {
            "vote_count": 11535,
            "id": 259316,
            "video": false,
            "vote_average": 7.4,
            "title": "Animais Fantásticos e Onde Habitam",
            "popularity": 34.826,
            "poster_path": "/kFgEl52DNhI6QqwN2CsKuxKl19T.jpg",
            "original_language": "en",
            "original_title": "Fantastic Beasts and Where to Find Them",
            "genre_ids": [
                12,
                10751,
                14
            ],
            "backdrop_path": "/7GrpqAs0oDcFcwFwyygnUI7BrZA.jpg",
            "adult": false,
            "overview": "Baseado no livro homônimo de J.K. Rowling. O excêntrico magizoologista Newt Scamander (Eddie Redmayne) chega à cidade de Nova York com sua maleta, um objeto mágico onde ele carrega uma coleção de fantásticos animais do mundo da magia que coletou durante as suas viagens. Em meio a comunidade bruxa norte-americana que teme muito mais a exposição aos trouxas do que os ingleses, Newt precisará usar suas habilidades e conhecimentos para capturar uma variedade de criaturas que acabam saindo da sua maleta.",
            "release_date": "2016-11-16"
        },
        {
            "vote_count": 7051,
            "id": 141052,
            "video": false,
            "vote_average": 6.2,
            "title": "Liga da Justiça",
            "popularity": 34.323,
            "poster_path": "/geyu6rplpbp7OUeOfB2uRVf1LpG.jpg",
            "original_language": "en",
            "original_title": "Justice League",
            "genre_ids": [
                28,
                12,
                14,
                878
            ],
            "backdrop_path": "/o5T8rZxoWSBMYwjsUFUqTt6uMQB.jpg",
            "adult": false,
            "overview": "Movido pela fé restaurada na humanidade e inspirado pelo ato de coragem do Superman, Bruce Wayne e a sua nova aliada, Diana Prince, enfrentam um inimigo ainda maior. Juntos, Batman e Mulher-Maravilha vão recrutar uma equipa de meta-humanos e fazer frente à mais recente ameaça mundial. A eles juntam-se Aquaman, Flash e o Cyborg, mas será que chegam a tempo de salvar o mundo?",
            "release_date": "2017-11-15"
        },
        {
            "vote_count": 9778,
            "id": 177572,
            "video": false,
            "vote_average": 7.8,
            "title": "Operação Big Hero",
            "popularity": 33.994,
            "poster_path": "/wjWhePIrOIdEXpDwnmSER3kLWdU.jpg",
            "original_language": "en",
            "original_title": "Big Hero 6",
            "genre_ids": [
                12,
                10751,
                16,
                28,
                35
            ],
            "backdrop_path": "/lv3NrraY2VRK6ImwNU3vfOPZyTi.jpg",
            "adult": false,
            "overview": "Cidade de San Fransokyo, Estados Unidos. Hiro Hamada (voz de Ryan Potter) é um garoto prodígio que, aos 13 anos, criou um poderoso robô para participar de lutas clandestinas, onde tenta ganhar um bom dinheiro. Seu irmão, Tadashi (voz de Daniel Henney), deseja atraí-lo para algo mais útil e resolve levá-lo até o laboratório onde trabalha, que está repleto de invenções. Hiro conhece os amigos de Tadashi e logo se interessa em estudar ali. Para tanto ele precisa fazer a apresentação de uma grande invenção, de forma a convencer o professor Callahan (James Cromwell) a matriculá-lo. Entretanto, as coisas não saem como ele imaginava e Hiro, deprimido, encontra auxílio inesperado através do robô inflável Baymax (voz Scott Adsit), criado pelo irmão.",
            "release_date": "2014-10-24"
        },
        {
            "vote_count": 2,
            "id": 536474,
            "video": false,
            "vote_average": 5.5,
            "title": "Hezarpa",
            "popularity": 33.621,
            "poster_path": "/q1dBQhHpSrLBwbuiNUyl15dlXO8.jpg",
            "original_language": "fa",
            "original_title": "Hezarpa",
            "genre_ids": [
                35
            ],
            "backdrop_path": "/29z0VHUABHIPIXaisg9V9rD9kb9.jpg",
            "adult": false,
            "overview": "",
            "release_date": "2018-07-04"
        },
        {
            "vote_count": 145,
            "id": 300681,
            "video": false,
            "vote_average": 5.4,
            "title": "Cópias",
            "popularity": 33.464,
            "poster_path": "/hhPBTAn9b4TYOxc1JYNsX4BFAlW.jpg",
            "original_language": "en",
            "original_title": "Replicas",
            "genre_ids": [
                53,
                878
            ],
            "backdrop_path": "/sHPfBVFq7dlnXCz1zFdbEdwcBDJ.jpg",
            "adult": false,
            "overview": "Um neurocientista e sua família sofrem um acidente de carro e só ele sobrevive. Inconformado, o homem começa uma luta incessante para trazê-los de volta por meio de um experimento que desafia as leis físicas da ciência.",
            "release_date": "2018-10-25"
        },
        {
            "vote_count": 11757,
            "id": 263115,
            "video": false,
            "vote_average": 7.8,
            "title": "Logan",
            "popularity": 33.309,
            "poster_path": "/f0CtZbae9cXj8bkWdCHzUHx5lsR.jpg",
            "original_language": "en",
            "original_title": "Logan",
            "genre_ids": [
                28,
                18,
                878
            ],
            "backdrop_path": "/5pAGnkFYSsFJ99ZxDIYnhQbQFXs.jpg",
            "adult": false,
            "overview": "Em 2029, Logan (Hugh Jackman) ganha a vida como chofer de limousine para cuidar do nonagenário Charles Xavier (Patrick Stewart). Debilitado fisicamente e esgotado emocionalmente, ele é procurado por Gabriela (Elizabeth Rodriguez), uma mexicana que precisa da ajuda do ex-X-Men para defender a pequena Laura Kinney / X-23 (Dafne Keen). Ao mesmo tempo em que se recusa a voltar à ativa, Logan é perseguido pelo mercenário Donald Pierce (Boyd Holbrook), interessado na menina.",
            "release_date": "2017-02-28"
        },
        {
            "vote_count": 14473,
            "id": 680,
            "video": false,
            "vote_average": 8.4,
            "title": "Pulp Fiction",
            "popularity": 33.197,
            "poster_path": "/tptjnB2LDbuUWya9Cx5sQtv5hqb.jpg",
            "original_language": "en",
            "original_title": "Pulp Fiction",
            "genre_ids": [
                53,
                80
            ],
            "backdrop_path": "/4cDFJr4HnXN5AdPw4AKrmLlMWdO.jpg",
            "adult": false,
            "overview": "Jules Winnfield e Vincent Vega são dois assassinos que saem para recuperar uma mala roubada de seu empregador, o chefe da máfia Marsellus Wallace. Wallace também pede, alguns dias mais tarde, para Vincent levar sua esposa Mia para passear, quando o próprio Wallace estará fora da cidade. Butch Coolidge é um envelhecido boxer que é pago por Wallace para perder sua próxima luta. As vidas dessas pessoas aparentemente não relacionadas são tecidas compondo uma série de engraçados, estranhos e desnecessários incidentes.",
            "release_date": "1994-09-10"
        },
        {
            "vote_count": 4730,
            "id": 156022,
            "video": false,
            "vote_average": 7.2,
            "title": "O Protetor",
            "popularity": 33.08,
            "poster_path": "/nVXbYqdXzILVuzIBG2essrq90Mp.jpg",
            "original_language": "en",
            "original_title": "The Equalizer",
            "genre_ids": [
                53,
                28,
                80
            ],
            "backdrop_path": "/hEJ52KqwOmyRpcihs10h7xOwN7e.jpg",
            "adult": false,
            "overview": "Baseado na série de televisão \"The Equalizer\" dos anos 1980, o filme apresenta Robert McCall (Denzel Washington), um homem misterioso que costumava trabalhar como oficial da polícia. Motivado pelas injustiças sociais, ele ajuda vítimas e qualquer pessoa em perigo. A protegida da vez é Teri (Chloë Grace Moretz), jovem explorada sexualmente por mafiosos russos.",
            "release_date": "2014-09-24"
        },
        {
            "vote_count": 8074,
            "id": 181808,
            "video": false,
            "vote_average": 7,
            "title": "Star Wars: Os Últimos Jedi",
            "popularity": 33.069,
            "poster_path": "/v1QQKq8M0fWxMgSdGOX1aCv8qMB.jpg",
            "original_language": "en",
            "original_title": "Star Wars: The Last Jedi",
            "genre_ids": [
                14,
                12,
                878,
                28
            ],
            "backdrop_path": "/baNQpUlmX8shVmJBGHMSL5Y6MBl.jpg",
            "adult": false,
            "overview": "Após encontrar o mítico e recluso Luke Skywalker em uma ilha isolada, a jovem Rey busca entender o balanço da Força a partir dos ensinamentos do mestre jedi. Paralelamente, o Primeiro Império de Kylo Ren se reorganiza para enfrentar a Aliança Rebelde.",
            "release_date": "2017-12-13"
        },
        {
            "vote_count": 18158,
            "id": 155,
            "video": false,
            "vote_average": 8.4,
            "title": "Batman: O Cavaleiro das Trevas",
            "popularity": 32.544,
            "poster_path": "/sCF3RtQFhA7qMizMgOlcaPc5vC9.jpg",
            "original_language": "en",
            "original_title": "The Dark Knight",
            "genre_ids": [
                18,
                28,
                80,
                53
            ],
            "backdrop_path": "/hqkIcbrOHL86UncnHIsHVcVmzue.jpg",
            "adult": false,
            "overview": "Após dois anos desde o surgimento do Batman (Christian Bale), os criminosos de Gotham City têm muito o que temer. Com a ajuda do tenente James Gordon (Gary Oldman) e do promotor público Harvey Dent (Aaron Eckhart), Batman luta contra o crime organizado. Acuados com o combate, os chefes do crime aceitam a proposta feita pelo Coringa (Heath Ledger) e o contratam para combater o Homem-Morcego.",
            "release_date": "2008-07-16"
        },
        {
            "vote_count": 250,
            "id": 434555,
            "video": false,
            "vote_average": 5,
            "title": "Cadáver",
            "popularity": 32.493,
            "poster_path": "/uwf7FawiYVwnaP8S6ReLLziqWmj.jpg",
            "original_language": "en",
            "original_title": "The Possession of Hannah Grace",
            "genre_ids": [
                27,
                9648,
                53
            ],
            "backdrop_path": "/7PlZbduXPMJ7SsTD8EOvUVJalmF.jpg",
            "adult": false,
            "overview": "Quando uma policial recém-saída da reabilitação fica responsável pelo turno da madrugada num necrotério de um hospital, ela começa a encarar acontecimentos bizarros e violentos causados por uma entidade maligna que habita um dos corpos.",
            "release_date": "2018-11-29"
        },
        {
            "vote_count": 15589,
            "id": 550,
            "video": false,
            "vote_average": 8.4,
            "title": "Clube da Luta",
            "popularity": 32.415,
            "poster_path": "/1YxnYKJaY3oIdqdOBw8uh7Bb2gI.jpg",
            "original_language": "en",
            "original_title": "Fight Club",
            "genre_ids": [
                18
            ],
            "backdrop_path": "/52AfXWuXCHn3UjD17rBruA9f5qb.jpg",
            "adult": false,
            "overview": "Jack (Edward Norton) é um executivo jovem, trabalha como investigador de seguros, mora confortavelmente, mas ele está ficando cada vez mais insatisfeito com sua vida medíocre. Para piorar ele está enfrentando uma terrível crise de insônia, até que encontra uma cura inusitada para o sua falta de sono ao frequentar grupos de auto-ajuda. Nesses encontros ele passa a conviver com pessoas problemáticas como a viciada Marla Singer (Helena Bonham Carter) e a conhecer estranhos como Tyler Durden (Brad Pitt). Misterioso e cheio de ideias, Tyler apresenta para Jack um grupo secreto que se encontra para extravasar suas angústias e tensões através de violentos combates corporais.",
            "release_date": "1999-10-15"
        },
        {
            "vote_count": 2,
            "id": 537681,
            "video": false,
            "vote_average": 6,
            "title": "Giant Little Ones",
            "popularity": 32.311,
            "poster_path": "/3YtXnRAPX9PldO56SKm6oj8qZDU.jpg",
            "original_language": "en",
            "original_title": "Giant Little Ones",
            "genre_ids": [
                18
            ],
            "backdrop_path": "/rlpH7Npia3MC0WDzwpkNFCSfGwJ.jpg",
            "adult": false,
            "overview": "",
            "release_date": "2019-03-15"
        },
        {
            "vote_count": 5,
            "id": 505914,
            "video": false,
            "vote_average": 4.9,
            "title": "A.I. Rising",
            "popularity": 32.213,
            "poster_path": "/aXosp6MFBxYi4m6ZmE4u1auReHc.jpg",
            "original_language": "en",
            "original_title": "A.I. Rising",
            "genre_ids": [
                878,
                18,
                10749
            ],
            "backdrop_path": "/eU2XjrnFBr6v72pFKlBAKxEWFIE.jpg",
            "adult": false,
            "overview": "Um relacionamento íntimo entre um humano e um androide testa os limites da natureza humana.",
            "release_date": "2018-02-25"
        },
        {
            "vote_count": 13764,
            "id": 603,
            "video": false,
            "vote_average": 8.1,
            "title": "Matrix",
            "popularity": 32.156,
            "poster_path": "/aWFDGCINBSG0BQHsxQDJtSEDxx7.jpg",
            "original_language": "en",
            "original_title": "The Matrix",
            "genre_ids": [
                28,
                878
            ],
            "backdrop_path": "/icmmSD4vTTDKOq2vvdulafOGw93.jpg",
            "adult": false,
            "overview": "Em um futuro próximo, Thomas Anderson (Keanu Reeves), um jovem programador de computador que mora em um cubículo escuro, é atormentado por estranhos pesadelos nos quais encontra-se conectado por cabos e contra sua vontade, em um imenso sistema de computadores do futuro. Em todas essas ocasiões, acorda gritando no exato momento em que os eletrodos estão para penetrar em seu cérebro. À medida que o sonho se repete, Anderson começa a ter dúvidas sobre a realidade. Por meio do encontro com os misteriosos Morpheus (Laurence Fishburne) e Trinity (Carrie-Anne Moss), Thomas descobre que é, assim como outras pessoas, vítima do Matrix, um sistema inteligente e artificial que manipula a mente das pessoas, criando a ilusão de um mundo real enquanto usa os cérebros e corpos dos indivíduos para produzir energia. Morpheus, entretanto, está convencido de que Thomas é Neo, o aguardado messias capaz de enfrentar o Matrix e conduzir as pessoas de volta à realidade e à liberdade.",
            "release_date": "1999-03-30"
        },
        {
            "vote_count": 5737,
            "id": 37799,
            "video": false,
            "vote_average": 7.2,
            "title": "A Rede Social",
            "popularity": 32.143,
            "poster_path": "/sikpGcU1gpkrBwljm8VoQSyWbH0.jpg",
            "original_language": "en",
            "original_title": "The Social Network",
            "genre_ids": [
                18
            ],
            "backdrop_path": "/8dc8WxSRpFKl7ZsVgKomyhpq4uf.jpg",
            "adult": false,
            "overview": "Em uma noite de outono em 2003, Mark Zuckerberg (Jesse Eisenberg), analista de sistemas graduado em Harvard, se senta em seu computador e começa a trabalhar em uma nova ideia. Apenas seis anos e 500 milhões de amigos mais tarde, Zuckerberg se torna o mais jovem bilionário da história com o sucesso da rede social Facebook. O sucesso, no entanto, o leva a complicações em sua vida social e profissional.",
            "release_date": "2010-10-01"
        }
    ]
}